[gd_resource type="Theme" load_steps=8 format=2]

[ext_resource path="res://assets/UI/button_01_03.png" type="Texture" id=1]
[ext_resource path="res://assets/UI/button_01_04.png" type="Texture" id=2]
[ext_resource path="res://assets/UI/button_01_05.png" type="Texture" id=3]

[sub_resource type="StyleBoxTexture" id=1]
texture = ExtResource( 3 )
region_rect = Rect2( 0, 0, 635, 176 )
margin_left = 4.0
margin_right = 4.0
margin_top = 6.0
margin_bottom = 4.0

[sub_resource type="StyleBoxTexture" id=2]
texture = ExtResource( 2 )
region_rect = Rect2( 0, 0, 635, 176 )
margin_left = 4.0
margin_right = 4.0
margin_top = 6.0
margin_bottom = 4.0

[sub_resource type="StyleBoxTexture" id=3]
texture = ExtResource( 1 )
region_rect = Rect2( 0, 0, 635, 176 )
margin_left = 4.0
margin_right = 4.0
margin_top = 6.0
margin_bottom = 4.0

[sub_resource type="StyleBoxFlat" id=4]
bg_color = Color( 0.847059, 0.862745, 0.670588, 1 )
border_width_left = 1
border_width_top = 1
border_width_right = 1
border_width_bottom = 1
border_color = Color( 0, 0, 0, 1 )
corner_radius_top_left = 5
corner_radius_top_right = 5
corner_radius_bottom_right = 5
corner_radius_bottom_left = 5

[resource]
Button/colors/font_color = Color( 0, 0, 0, 1 )
Button/colors/font_color_disabled = Color( 0, 0, 0, 0.2 )
Button/colors/font_color_hover = Color( 0, 0, 0, 1 )
Button/colors/font_color_pressed = Color( 0, 0, 0, 1 )
Button/constants/hseparation = 2
Button/fonts/font = null
Button/styles/disabled = null
Button/styles/focus = null
Button/styles/hover = SubResource( 1 )
Button/styles/normal = SubResource( 2 )
Button/styles/pressed = SubResource( 3 )
HBoxContainer/constants/separation = 4
HSlider/icons/grabber = null
HSlider/icons/grabber_disabled = null
HSlider/icons/grabber_highlight = null
HSlider/icons/tick = null
HSlider/styles/grabber_area = null
HSlider/styles/grabber_area_highlight = null
HSlider/styles/slider = null
Label/colors/font_color = Color( 0, 0, 0, 1 )
Label/colors/font_color_shadow = Color( 0, 0, 0, 0 )
Label/colors/font_outline_modulate = Color( 1, 1, 1, 1 )
Label/constants/line_spacing = 3
Label/constants/shadow_as_outline = 0
Label/constants/shadow_offset_x = 1
Label/constants/shadow_offset_y = 1
Label/fonts/font = null
Label/styles/normal = null
MarginContainer/constants/margin_bottom = 12
MarginContainer/constants/margin_left = 5
MarginContainer/constants/margin_right = 5
MarginContainer/constants/margin_top = 12
PanelContainer/styles/panel = SubResource( 4 )
