[gd_scene load_steps=4 format=2]

[ext_resource path="res://assets/world/plants/seaweed1.png" type="Texture" id=1]
[ext_resource path="res://shaders/black_outline.shader" type="Shader" id=2]

[sub_resource type="ShaderMaterial" id=1]
shader = ExtResource( 2 )
shader_param/line_color = Color( 0, 0, 0, 1 )
shader_param/line_thickness = 2.0

[node name="Plant" type="Node2D"]

[node name="seaweed1" type="Sprite" parent="."]
material = SubResource( 1 )
position = Vector2( 32, -64 )
scale = Vector2( 0.0987097, 0.0530404 )
texture = ExtResource( 1 )

[node name="FishSize" type="Label" parent="."]
visible = false
margin_left = 72.0
margin_top = -64.0
margin_right = 112.0
margin_bottom = -33.0
text = "Fish
"
__meta__ = {
"_edit_use_anchors_": false
}
