[gd_resource type="DynamicFont" load_steps=2 format=2]

[ext_resource path="res://assets/fonts/Main_menu/Roboto-BlackItalic.ttf" type="DynamicFontData" id=1]

[resource]
size = 50
outline_color = Color( 0, 0, 0, 1 )
use_filter = true
font_data = ExtResource( 1 )
