[gd_scene load_steps=4 format=2]

[ext_resource path="res://assets/world/props/bubble.png" type="Texture" id=1]
[ext_resource path="res://Main_menu/Bubble_menu.gd" type="Script" id=2]

[sub_resource type="ParticlesMaterial" id=1]
flag_disable_z = true
direction = Vector3( 0, -1, 0 )
spread = 10.0
gravity = Vector3( 0, -10, 0 )
initial_velocity = 70.0
initial_velocity_random = 0.2
orbit_velocity = 0.0
orbit_velocity_random = 0.0
scale = 0.07
scale_random = 0.05

[node name="Bubble" type="Particles2D"]
position = Vector2( 216, 320 )
lifetime = 15.0
explosiveness = 0.2
randomness = 1.0
process_material = SubResource( 1 )
texture = ExtResource( 1 )
script = ExtResource( 2 )
