[gd_scene load_steps=2 format=2]

[ext_resource path="res://assets/fonts/credits/Credits_big.tres" type="DynamicFont" id=1]

[node name="credit_text_big" type="Label"]
margin_top = 443.0
margin_right = 1920.0
margin_bottom = 561.0
custom_fonts/font = ExtResource( 1 )
custom_colors/font_color = Color( 1, 1, 1, 1 )
text = "Big"
align = 1
autowrap = true
__meta__ = {
"_edit_use_anchors_": false
}
